<?xml version="1.0" encoding="UTF-8" standalone="no"?>
<svg
   xmlns:dc="http://purl.org/dc/elements/1.1/"
   xmlns:cc="http://creativecommons.org/ns#"
   xmlns:rdf="http://www.w3.org/1999/02/22-rdf-syntax-ns#"
   xmlns:svg="http://www.w3.org/2000/svg"
   xmlns="http://www.w3.org/2000/svg"
   xmlns:xlink="http://www.w3.org/1999/xlink"
   xmlns:sodipodi="http://sodipodi.sourceforge.net/DTD/sodipodi-0.dtd"
   xmlns:inkscape="http://www.inkscape.org/namespaces/inkscape"
   width="18.520824mm"
   height="6.6145935mm"
   viewBox="0 0 18.520824 6.6145935"
   version="1.1"
   id="svg870"
   inkscape:version="1.0.2 (e86c870879, 2021-01-15)"
   sodipodi:docname="Broken_block_2.svg">
  <defs
     id="defs864">
    <linearGradient
       inkscape:collect="always"
       id="linearGradient1639">
      <stop
         style="stop-color:#121212;stop-opacity:1;"
         offset="0"
         id="stop1635" />
      <stop
         style="stop-color:#121212;stop-opacity:0;"
         offset="1"
         id="stop1637" />
    </linearGradient>
    <linearGradient
       inkscape:collect="always"
       id="linearGradient1621">
      <stop
         style="stop-color:#232323;stop-opacity:1;"
         offset="0"
         id="stop1617" />
      <stop
         style="stop-color:#232323;stop-opacity:0;"
         offset="1"
         id="stop1619" />
    </linearGradient>
    <linearGradient
       inkscape:collect="always"
       id="linearGradient1603">
      <stop
         style="stop-color:#0c0c0c;stop-opacity:1;"
         offset="0"
         id="stop1599" />
      <stop
         style="stop-color:#0c0c0c;stop-opacity:0;"
         offset="1"
         id="stop1601" />
    </linearGradient>
    <linearGradient
       inkscape:collect="always"
       id="linearGradient1595">
      <stop
         style="stop-color:#191919;stop-opacity:1;"
         offset="0"
         id="stop1591" />
      <stop
         style="stop-color:#191919;stop-opacity:0;"
         offset="1"
         id="stop1593" />
    </linearGradient>
    <linearGradient
       inkscape:collect="always"
       id="linearGradient1587">
      <stop
         style="stop-color:#2b2b2b;stop-opacity:1;"
         offset="0"
         id="stop1583" />
      <stop
         style="stop-color:#2b2b2b;stop-opacity:0;"
         offset="1"
         id="stop1585" />
    </linearGradient>
    <linearGradient
       inkscape:collect="always"
       id="linearGradient1503">
      <stop
         style="stop-color:#262626;stop-opacity:1;"
         offset="0"
         id="stop1499" />
      <stop
         style="stop-color:#262626;stop-opacity:0;"
         offset="1"
         id="stop1501" />
    </linearGradient>
    <linearGradient
       inkscape:collect="always"
       xlink:href="#linearGradient1503"
       id="linearGradient1505"
       x1="40.716843"
       y1="16.800798"
       x2="36.154675"
       y2="14.483811"
       gradientUnits="userSpaceOnUse"
       gradientTransform="matrix(0.97533243,0,0,0.92558432,-23.873188,-10.504448)" />
    <linearGradient
       inkscape:collect="always"
       xlink:href="#linearGradient1587"
       id="linearGradient1589"
       x1="34.71376"
       y1="16.924274"
       x2="35.864655"
       y2="13.294899"
       gradientUnits="userSpaceOnUse"
       gradientTransform="matrix(0.97533243,0,0,0.92558432,-23.873188,-10.504448)" />
    <linearGradient
       inkscape:collect="always"
       xlink:href="#linearGradient1595"
       id="linearGradient1597"
       x1="26.393631"
       y1="17.321901"
       x2="35.667377"
       y2="15.078826"
       gradientUnits="userSpaceOnUse"
       gradientTransform="matrix(0.97533243,0,0,0.92558432,-23.873188,-10.504448)" />
    <linearGradient
       inkscape:collect="always"
       xlink:href="#linearGradient1603"
       id="linearGradient1605"
       x1="35.923744"
       y1="11.777935"
       x2="24.592194"
       y2="15.999011"
       gradientUnits="userSpaceOnUse"
       gradientTransform="matrix(0.97533243,0,0,0.92558432,-23.873188,-10.504448)" />
    <linearGradient
       inkscape:collect="always"
       xlink:href="#linearGradient1621"
       id="linearGradient1623"
       x1="25.738634"
       y1="12.797283"
       x2="29.583529"
       y2="16.539698"
       gradientUnits="userSpaceOnUse"
       gradientTransform="matrix(0.97533243,0,0,0.92558432,-23.873188,-10.504448)" />
    <linearGradient
       inkscape:collect="always"
       xlink:href="#linearGradient1639"
       id="linearGradient1641"
       x1="38.792068"
       y1="12.26712"
       x2="38.656532"
       y2="15.751067"
       gradientUnits="userSpaceOnUse"
       gradientTransform="matrix(0.97533243,0,0,0.92558432,-23.873188,-10.504448)" />
  </defs>
  <sodipodi:namedview
     id="base"
     pagecolor="#ffffff"
     bordercolor="#666666"
     borderopacity="1.0"
     inkscape:pageopacity="0.0"
     inkscape:pageshadow="2"
     inkscape:zoom="2.0268457"
     inkscape:cx="144.94087"
     inkscape:cy="114.51973"
     inkscape:document-units="mm"
     inkscape:current-layer="layer1"
     inkscape:document-rotation="0"
     showgrid="false"
     inkscape:window-width="1920"
     inkscape:window-height="1016"
     inkscape:window-x="0"
     inkscape:window-y="0"
     inkscape:window-maximized="1"
     fit-margin-top="0"
     fit-margin-left="0"
     fit-margin-right="0"
     fit-margin-bottom="0" />
  <metadata
     id="metadata867">
    <rdf:RDF>
      <cc:Work
         rdf:about="">
        <dc:format>image/svg+xml</dc:format>
        <dc:type
           rdf:resource="http://purl.org/dc/dcmitype/StillImage" />
        <dc:title></dc:title>
      </cc:Work>
    </rdf:RDF>
  </metadata>
  <g
     inkscape:label="Слой 1"
     inkscape:groupmode="layer"
     id="layer1">
    <rect
       style="opacity:0.996;fill:#575757;fill-opacity:1;stroke:#000000;stroke-width:1.15061;stroke-linecap:round;stroke-linejoin:round;stroke-miterlimit:13.9;stroke-dasharray:none;stroke-opacity:1;paint-order:markers stroke fill"
       id="rect1435"
       width="17.370214"
       height="5.4639835"
       x="0.57530499"
       y="0.57530499"
       ry="0.80549037"
       inkscape:export-xdpi="96"
       inkscape:export-ydpi="96" />
    <path
       style="fill:url(#linearGradient1597);fill-opacity:1;stroke:none;stroke-width:0.208215;stroke-linecap:butt;stroke-linejoin:miter;stroke-miterlimit:4;stroke-dasharray:none;stroke-opacity:1"
       d="m 0.59418454,5.5222064 c 1.98957796,-0.881102 1.44259696,0.01375 2.50072296,-0.794538 1.058123,-0.808294 -0.466169,-0.902551 1.517824,-0.798495 1.983989,0.104055 0.701008,0.4665 1.978074,0.384996 1.206755,-0.07702 2.141914,-0.473988 1.242938,-0.104779 -1.724414,0.708218 -1.031292,0.601772 -1.572396,0.510091 -0.510332,-0.08647 -0.359958,-0.419991 -1.258335,-0.483937 -0.640855,-0.04561 -0.738041,-0.231934 -0.973752,0.161477 -0.106262,0.177347 -0.151029,0.409984 -0.226057,0.624226 -0.0914,0.261015 -0.227716,0.494732 -0.574822,0.567909 -0.293814,0.06194 -0.533115,0.144883 -0.779645,0.228376 -0.283775,0.0961 -0.577127,0.192939 -0.97422,0.259315 -0.74206796,0.124038 -0.88033296,-0.554641 -0.88033196,-0.554641 z"
       id="path1451"
       sodipodi:nodetypes="csssssssssssc"
       inkscape:export-xdpi="96"
       inkscape:export-ydpi="96" />
    <path
       style="fill:url(#linearGradient1505);fill-opacity:1;stroke:none;stroke-width:0.251389px;stroke-linecap:butt;stroke-linejoin:miter;stroke-opacity:1"
       d="m 17.089731,5.9954514 c -1.446885,-0.488207 -0.996744,-0.09154 -1.543345,-0.579747 -0.5466,-0.488208 -0.192916,-0.427181 -1.350426,-0.549234 -1.157504,-0.12205 -1.607649,-0.06103 -1.221812,-0.488207 0.385836,-0.427182 0.192917,-0.976416 -0.09646,-1.037442 -0.289378,-0.06103 1.125354,0.09154 0.932435,0.488208 -0.192917,0.396669 -0.45014,0.762825 0.257227,0.549234 0.707363,-0.21359 0.803823,0.152565 1.318272,0.244105 0.514448,0.09154 0.450141,0.244102 1.189659,0.06103 0.739522,-0.183077 0.474258,0.376355 1.221816,0.488208 0.521485,0.07802 -0.358738,1.140313 -0.707367,0.82385 z"
       id="path1481"
       sodipodi:nodetypes="sssssssssscs"
       inkscape:export-xdpi="96"
       inkscape:export-ydpi="96" />
    <path
       style="fill:url(#linearGradient1605);fill-opacity:1;stroke:none;stroke-width:0.251389px;stroke-linecap:butt;stroke-linejoin:miter;stroke-opacity:1"
       d="m 12.540723,0.57480445 c -0.02274,0.237337 -0.452332,0.46627595 -0.452332,0.46627595 -0.297181,0.287978 -0.726192,0.257829 -1.035123,0.303147 -0.852627,0.125082 -0.93673,0.277009 -1.3004985,0.255434 -0.36377,-0.02158 0.04319,0.505219 -0.476977,0.270687 -0.609529,-0.274825 -0.980622,-0.08152 -0.980622,-0.08152 -0.529172,-0.261844 -0.181888,-0.151032 -0.750278,0.02158 -0.568391,0.172609 -0.406717,0.112891 -0.270304,0.328649 0.136414,0.21576 0.431975,0.08631 0.454712,0.453095 0.02274,0.36679 -0.522919,0.172608 -0.475833,0.965722 0.02986,0.502895 -0.297179,-0.685233 -0.04709,-0.793114 0.25009,-0.107879 -0.45471,-0.47467 -0.363769,-0.625703 0.09093,-0.15103 -0.272829,0.172608 -0.272829,-0.02158 0,-0.194182 -0.203475,0.517412 -0.317157,0.754748 -0.113675,0.237336 0.36263,-0.517411 -0.569531,-0.517411 -0.93216,0 -2.184684,0.244702 -1.844187,0.08807 1.499922,-0.690022 2.096801,-0.194858 2.346891,-0.626378 0.250093,-0.431519 0.520399,-0.238418 1.020582,-0.71309 0.500184,-0.47466995 0.204621,-0.32363695 1.204985,-0.17260795 1.000369,0.15103295 1.7132775,-0.100939 1.7406995,-0.359625 z"
       id="path1507"
       sodipodi:nodetypes="csssssssssssssssssscc"
       inkscape:export-xdpi="96"
       inkscape:export-ydpi="96" />
    <path
       style="fill:url(#linearGradient1589);fill-opacity:1;stroke:none;stroke-width:0.251389px;stroke-linecap:butt;stroke-linejoin:miter;stroke-opacity:1"
       d="m 8.6550985,6.0540144 c 0.61201,-0.498301 0.693072,-0.09941 0.656879,-0.660272 -0.03619,-0.560857 -0.365494,-0.46266 -0.184816,-0.786908 0.180678,-0.324247 0.670375,-0.08855 0.9985125,-0.499597 0.328141,-0.411046 0.601848,-0.174625 0.656999,-0.627908 0.05515,-0.453283 -0.228799,-0.387603 -0.241049,-0.624899 -0.01226,-0.237296 -0.03434,-0.06461 0.204738,0.03167 0.239085,0.09629 0.170555,0.01023 0.205422,0.215072 0.03487,0.204856 0.22828,0.24736 0.251698,0.430679 0.02343,0.183317 -0.260455,0.270573 -0.36176,0.540614 -0.101305,0.270042 -0.488411,0.109518 -0.544447,0.325467 -0.05603,0.215948 -0.158386,0.205504 0.01329,0.517782 0.17168,0.312276 0.09242,0.398846 -0.05499,0.496433 -0.147419,0.09758 0.03466,0.150916 0.365294,0.40872 0.330629,0.257805 0.228156,0.214996 0.228156,0.214996 z"
       id="path1573"
       inkscape:export-xdpi="96"
       inkscape:export-ydpi="96" />
    <path
       style="fill:url(#linearGradient1623);fill-opacity:1;stroke:none;stroke-width:0.251389px;stroke-linecap:butt;stroke-linejoin:miter;stroke-opacity:1"
       d="m 0.84789754,1.2978844 c 0,0 0.59732496,0.822971 0.30046196,0.959659 -0.17670596,0.08136 0.56145,0.382408 0.706453,0.611077 0.145002,0.228669 0.105672,0.854234 0.17769,0.61767 0.07201,-0.236564 -0.0572,-0.678845 0.256521,-0.511411 0.313721,0.167434 0.289244,-0.09952 0.329757,0.136901 0.04051,0.236425 0.964872,0.204769 0.675381,0.121216 -0.289492,-0.08356 -0.337765,-0.114006 -0.434401,-0.243567 -0.09664,-0.129559 -0.0405,-0.228797 -0.153135,-0.297311 -0.112631,-0.06851 -0.361709,0.008 -0.353893,-0.152129 0.0078,-0.160202 -0.60187,0.03136 -0.409257,-0.1901 0.192614,-0.221459 0.02899,-0.375495 -0.0744,-0.497605 -0.230446,-0.272156 -0.152454,-0.104843 -0.193129,-0.455693 -0.04067,-0.350849 0.0399,-0.213641 -0.0971,-0.47283095 -0.137007,-0.259191 -0.180607,-0.240989 -0.180607,-0.240989 0.04903,-0.217903 -0.325234,-0.03892 -0.325234,-0.03892 0,0 -0.24166096,0.06749 -0.38924896,0.330552 -0.130137,0.19032795 -0.09892,0.37936495 -0.09892,0.37936495 z"
       id="path1607"
       sodipodi:nodetypes="ssssssssscssssscccs"
       inkscape:export-xdpi="96"
       inkscape:export-ydpi="96" />
    <path
       style="fill:url(#linearGradient1641);fill-opacity:1;stroke:none;stroke-width:0.251389px;stroke-linecap:butt;stroke-linejoin:miter;stroke-opacity:1"
       d="M 13.201145,0.58976945 C 13.52781,1.3489614 12.379919,1.6681054 12.379919,1.6681054 c 0,0 0.736197,-0.110084 0.712457,0.06296 -0.02374,0.173055 -0.509965,0.457515 -0.613768,0.673476 -0.103801,0.215957 -0.528322,0.690119 -0.05324,0.3569 0.475086,-0.333216 0.265438,-0.58316 0.987676,-0.217097 0.722236,0.366062 1.052605,-0.62806 1.232612,-0.167212 0.180001,0.46085 0.721433,1.578239 0.632956,1.063717 -0.08848,-0.514522 -0.176895,-1.039866 -0.08476,-1.207178 0.09213,-0.167311 0.719262,-0.142634 0.05803,-0.189122 -0.661224,-0.04649 -0.254703,-0.577252 -0.627294,-0.216483 -0.37259,0.36077 -0.514049,0.378723 -0.741296,0.220691 -0.227249,-0.158033 -0.582151,0.09459 -0.232691,-0.206764 0.349465,-0.301354 0.908224,-0.287832 0.840467,-0.412624 -0.06775,-0.124792 0.517787,-0.85251795 0.517787,-0.85251795 z"
       id="path1625"
       sodipodi:nodetypes="ccsssssssssssscc"
       inkscape:export-xdpi="96"
       inkscape:export-ydpi="96" />
  </g>
</svg>
